\relax 
\providecommand\hyper@newdestlabel[2]{}
\catcode `"\active 
\catcode `<\active 
\catcode `>\active 
\@nameuse{es@quoting}
\catcode `'\active 
\providecommand\HyperFirstAtBeginDocument{\AtBeginDocument}
\HyperFirstAtBeginDocument{\ifx\hyper@anchor\@undefined
\global\let\oldcontentsline\contentsline
\gdef\contentsline#1#2#3#4{\oldcontentsline{#1}{#2}{#3}}
\global\let\oldnewlabel\newlabel
\gdef\newlabel#1#2{\newlabelxx{#1}#2}
\gdef\newlabelxx#1#2#3#4#5#6{\oldnewlabel{#1}{{#2}{#3}}}
\AtEndDocument{\ifx\hyper@anchor\@undefined
\let\contentsline\oldcontentsline
\let\newlabel\oldnewlabel
\fi}
\fi}
\global\let\hyper@last\relax 
\gdef\HyperFirstAtBeginDocument#1{#1}
\providecommand\HyField@AuxAddToFields[1]{}
\providecommand\HyField@AuxAddToCoFields[2]{}
\providecommand \oddpage@label [2]{}
\select@language{spanish}
\@writefile{toc}{\select@language{spanish}}
\@writefile{lof}{\select@language{spanish}}
\@writefile{lot}{\select@language{spanish}}
\@writefile{toc}{\contentsline {chapter}{\numberline {1}Introducci\IeC {\'o}n}{1}{chapter.1}}
\@writefile{lof}{\addvspace {10\p@ }}
\@writefile{lot}{\addvspace {10\p@ }}
\@writefile{toc}{\contentsline {section}{\numberline {1.1}Objetivos}{1}{section.1.1}}
\@writefile{toc}{\contentsline {section}{\numberline {1.2}Actividad pr\IeC {\'a}ctica}{1}{section.1.2}}
\@writefile{lof}{\contentsline {figure}{\numberline {1.1}{\ignorespaces $CT_C$ vs $T$\relax }}{2}{figure.caption.2}}
\@writefile{toc}{\contentsline {section}{\numberline {1.3}Medici\IeC {\'o}n de la variaci\IeC {\'o}n de la capacidad y la resistencia debidos a cambios de temperatura de operaci\IeC {\'o}n}{2}{section.1.3}}
\@writefile{lof}{\contentsline {figure}{\numberline {1.2}{\ignorespaces Circuito de medici\IeC {\'o}n basado en el 4047 en modo astable\relax }}{3}{figure.caption.3}}
\@writefile{toc}{\contentsline {chapter}{\numberline {2}Desarrollo}{4}{chapter.2}}
\@writefile{lof}{\addvspace {10\p@ }}
\@writefile{lot}{\addvspace {10\p@ }}
\@writefile{toc}{\contentsline {section}{\numberline {2.1}Mediciones y valores c\IeC {\'a}lculados}{4}{section.2.1}}
\@writefile{toc}{\contentsline {subsection}{Capacitores}{4}{section*.4}}
\@writefile{lof}{\contentsline {figure}{\numberline {2.1}{\ignorespaces Capacitor de poli\IeC {\'e}ster (no polarizado)\relax }}{4}{figure.caption.5}}
\@writefile{lof}{\contentsline {figure}{\numberline {2.2}{\ignorespaces Capacitor electrol\IeC {\'\i }tico (polarizado)\relax }}{4}{figure.caption.6}}
\@writefile{lof}{\contentsline {figure}{\numberline {2.3}{\ignorespaces Capacitor cer\IeC {\'a}mico (no polarizado)\relax }}{4}{figure.caption.7}}
\@writefile{lof}{\contentsline {figure}{\numberline {2.4}{\ignorespaces Gr\IeC {\'a}fico comparativo de coeficientes de temperatura de capacitores\relax }}{5}{figure.caption.8}}
\@writefile{toc}{\contentsline {subsection}{Resistencias}{5}{section*.9}}
\@writefile{lof}{\contentsline {figure}{\numberline {2.5}{\ignorespaces Resistencia de carb\IeC {\'o}n\relax }}{5}{figure.caption.10}}
\@writefile{lof}{\contentsline {figure}{\numberline {2.6}{\ignorespaces Resistencia de metal film\relax }}{5}{figure.caption.11}}
\@writefile{lof}{\contentsline {figure}{\numberline {2.7}{\ignorespaces Resistencia cer\IeC {\'a}mica\relax }}{5}{figure.caption.12}}
\@writefile{lof}{\contentsline {figure}{\numberline {2.8}{\ignorespaces Gr\IeC {\'a}fico comparativo de coeficientes de temperatura de resistencias\relax }}{6}{figure.caption.13}}
\@writefile{toc}{\contentsline {section}{\numberline {2.2}Fotos de componentes}{6}{section.2.2}}
\@writefile{lof}{\contentsline {figure}{\numberline {2.9}{\ignorespaces Capacitor de poli\IeC {\'e}ster\relax }}{6}{figure.caption.14}}
\@writefile{lof}{\contentsline {figure}{\numberline {2.10}{\ignorespaces Capacitor electrol\IeC {\'\i }tico\relax }}{7}{figure.caption.15}}
\@writefile{lof}{\contentsline {figure}{\numberline {2.11}{\ignorespaces Capacitor cer\IeC {\'a}mico\relax }}{7}{figure.caption.16}}
\@writefile{lof}{\contentsline {figure}{\numberline {2.12}{\ignorespaces Resistencia de carb\IeC {\'o}n\relax }}{8}{figure.caption.17}}
\@writefile{lof}{\contentsline {figure}{\numberline {2.13}{\ignorespaces Resistencia de metal film\relax }}{8}{figure.caption.18}}
\@writefile{lof}{\contentsline {figure}{\numberline {2.14}{\ignorespaces Resistencia cer\IeC {\'a}mica\relax }}{9}{figure.caption.19}}
\@writefile{toc}{\contentsline {chapter}{\numberline {3}Conclusiones}{10}{chapter.3}}
\@writefile{lof}{\addvspace {10\p@ }}
\@writefile{lot}{\addvspace {10\p@ }}
